-- Merging decision tree log ---
manifest
ADDED from D:\Atul\temp\AlfredoDiaz\mAComponents\src\main\AndroidManifest.xml:1:1-17:12
INJECTED from D:\Atul\temp\AlfredoDiaz\mAComponents\src\main\AndroidManifest.xml:1:1-17:12
INJECTED from D:\Atul\temp\AlfredoDiaz\mAComponents\src\main\AndroidManifest.xml:1:1-17:12
INJECTED from D:\Atul\temp\AlfredoDiaz\mAComponents\src\main\AndroidManifest.xml:1:1-17:12
INJECTED from D:\Atul\temp\AlfredoDiaz\mAComponents\src\main\AndroidManifest.xml:1:1-17:12
INJECTED from D:\Atul\temp\AlfredoDiaz\mAComponents\src\main\AndroidManifest.xml:1:1-17:12
INJECTED from D:\Atul\temp\AlfredoDiaz\mAComponents\src\main\AndroidManifest.xml:1:1-17:12
	package
		ADDED from D:\Atul\temp\AlfredoDiaz\mAComponents\src\main\AndroidManifest.xml:2:5-40
		INJECTED from D:\Atul\temp\AlfredoDiaz\mAComponents\src\main\AndroidManifest.xml
		INJECTED from D:\Atul\temp\AlfredoDiaz\mAComponents\src\main\AndroidManifest.xml
	android:versionName
		ADDED from D:\Atul\temp\AlfredoDiaz\mAComponents\src\main\AndroidManifest.xml:4:5-30
		INJECTED from D:\Atul\temp\AlfredoDiaz\mAComponents\src\main\AndroidManifest.xml
		INJECTED from D:\Atul\temp\AlfredoDiaz\mAComponents\src\main\AndroidManifest.xml
	xmlns:android
		ADDED from D:\Atul\temp\AlfredoDiaz\mAComponents\src\main\AndroidManifest.xml:1:11-69
	android:versionCode
		ADDED from D:\Atul\temp\AlfredoDiaz\mAComponents\src\main\AndroidManifest.xml:3:5-28
		INJECTED from D:\Atul\temp\AlfredoDiaz\mAComponents\src\main\AndroidManifest.xml
		INJECTED from D:\Atul\temp\AlfredoDiaz\mAComponents\src\main\AndroidManifest.xml
uses-sdk
ADDED from D:\Atul\temp\AlfredoDiaz\mAComponents\src\main\AndroidManifest.xml:7:5-9:41
INJECTED from D:\Atul\temp\AlfredoDiaz\mAComponents\src\main\AndroidManifest.xml:7:5-9:41
INJECTED from D:\Atul\temp\AlfredoDiaz\mAComponents\src\main\AndroidManifest.xml:7:5-9:41
INJECTED from D:\Atul\temp\AlfredoDiaz\mAComponents\src\main\AndroidManifest.xml:7:5-9:41
INJECTED from D:\Atul\temp\AlfredoDiaz\mAComponents\src\main\AndroidManifest.xml:7:5-9:41
	android:targetSdkVersion
		ADDED from D:\Atul\temp\AlfredoDiaz\mAComponents\src\main\AndroidManifest.xml:9:9-38
		INJECTED from D:\Atul\temp\AlfredoDiaz\mAComponents\src\main\AndroidManifest.xml
		INJECTED from D:\Atul\temp\AlfredoDiaz\mAComponents\src\main\AndroidManifest.xml
	android:minSdkVersion
		ADDED from D:\Atul\temp\AlfredoDiaz\mAComponents\src\main\AndroidManifest.xml:8:9-35
		INJECTED from D:\Atul\temp\AlfredoDiaz\mAComponents\src\main\AndroidManifest.xml
		INJECTED from D:\Atul\temp\AlfredoDiaz\mAComponents\src\main\AndroidManifest.xml
application
ADDED from D:\Atul\temp\AlfredoDiaz\mAComponents\src\main\AndroidManifest.xml:11:5-15:19
	android:label
		ADDED from D:\Atul\temp\AlfredoDiaz\mAComponents\src\main\AndroidManifest.xml:13:9-41
	android:allowBackup
		ADDED from D:\Atul\temp\AlfredoDiaz\mAComponents\src\main\AndroidManifest.xml:12:9-35
	android:theme
		ADDED from D:\Atul\temp\AlfredoDiaz\mAComponents\src\main\AndroidManifest.xml:14:9-40
